…
The final part is to load our data. It has to be a `TimeArray`, so we will create one using random dates and values. For importing your own data you may use the function `readtimearray()` from the `TimeSeries` package.
```
data = TimeArray(DateTime(2020,1,1):Quarter(1):DateTime(2027,4,1),rand(30,3));
julia> data = TimeArray(DateTime(2020,1,1):Quarter(1):DateTime(2027,4,1),rand(30,3))
30×3 TimeArray{Float64, 2, DateTime, Matrix{Float64}} 2020-01-01T00:00:00 to 2027-04-01T00:00:00
┌─────────────────────┬────────────┬───────────┬──────────┐
│                     │ A          │ B         │ C        │
├─────────────────────┼────────────┼───────────┼──────────┤
│ 2020-01-01T00:00:00 │ 0.00817292 │  0.939333 │ 0.372302 │
│ 2020-04-01T00:00:00 │   0.420362 │ 0.0207827 │ 0.134192 │
│          ⋮          │     ⋮      │     ⋮     │    ⋮     │
│ 2027-04-01T00:00:00 │   0.942019 │  0.414029 │ 0.208983 │
└─────────────────────┴────────────┴───────────┴──────────┘
                                            27 rows omitted
…
